Project 2: Data Mining, Classification, Prediction
…
How Many Observations for Binary Variable?

Presidents %>% filter(Incumbent == "N")

## # A tibble: 287 x 10
##    ElectionYear CandidateName       HomeState `Incumbent?` CandParty PopularVote
##           <dbl> <chr>               <chr>     <chr>        <chr>           <dbl>
##  1         1788 George Washington   Virginia  N            Independ       39624
##  2         1796 John Adams          Massachu N            Federali       35726
##  3         1796 Thomas Jefferson    Virginia  N            Democrat       31115
##  4         1800 Thomas Jefferson    Virginia  N            Democrat       45467
##  5         1804 Charles C. Pinckney South Ca N            Federali       38919
##  6         1808 James Madison       Virginia  N            Democrat      124732
##  7         1808 Charles C. Pinckney South Ca N            Federali       62431
##  8         1808 Jamers Monroe       Virginia  N            Democrat        4848
##  9         1812 DeWitt Clinton      New York  N            Democrat      132781
## 10         1812 Rufus King          New York  N            Federali        5574
## #  with 277 more rows, and 4 more variables: PopVoteShare <dbl>,
## #   ElectoralVotes <dbl>, ElecVoteShare <dbl>, Incumbent <chr>

Presidents %>% filter(Incumbent == "Y")

## # A tibble: 32 x 10
##    ElectionYear CandidateName     HomeState  `Incumbent?` CandParty  PopularVote
##           <dbl> <chr>             <chr>      <chr>        <chr>            <dbl>
##  1         1792 George Washington Virginia   Y            Independe       28300
##  2         1800 John Adams        Massachus Y            Federalist       29621
##  3         1804 Thomas Jefferson  Virginia   Y            Democrati      104110
##  4         1812 James Madison     Virginia   Y            Democrati      140431
##  5         1820 James Monroe      Virginia   Y            Democrati       87343
##  6         1828 John Q. Adams     Massachus Y            National       507440
##  7         1832 Andrew Jackson    Tennessee  Y            Democratic      701780
##  8         1840 Martin Van Buren  New York   Y            Democratic     1128854
##  9         1864 Abraham Lincoln   Illinois   Y            Republican     2218388
## 10         1872 Ulysses S. Grant  Illinois   Y            Republican     3598235
## #  with 22 more rows, and 4 more variables: PopVoteShare <dbl>,
## #   ElectoralVotes <dbl>, ElecVoteShare <dbl>, Incumbent <chr>
…
